<?xml version="1.0" standalone="no"?>
<!DOCTYPE svg PUBLIC "-//W3C//DTD SVG 1.1//EN" "http://www.w3.org/Graphics/SVG/1.1/DTD/svg11.dtd" >
<svg xmlns="http://www.w3.org/2000/svg">
<metadata>Generated by IcoMoon</metadata>
<defs>
<font id="ico" horiz-adv-x="1024">
<font-face units-per-em="1024" ascent="960" descent="-64" />
<missing-glyph horiz-adv-x="1024" />
<glyph unicode="&#x20;" horiz-adv-x="512" d="" />
<glyph unicode="&#xe900;" glyph-name="symbol" d="M268.441 395.574c-7.442 4.302-15.771-4.040-11.474-11.494l232.235-402.878c10.146-17.598 35.5-17.606 45.648 0l267.38 463.856c6.96 12.072 2.83 27.508-9.222 34.478l-319.534 184.777c-44.578 25.778-94.85 40.063-146.302 41.571l-208.729 6.116c-15.676 0-12.373-20.011 1.101-28.035l441.81-263.115c11.854-7.058 15.84-22.35 8.944-34.312l-58.958-102.28c-6.958-12.070-22.368-16.206-34.42-9.238l-208.479 120.554zM928.428 655.574l-37.632-59.030c-7.256-11.379-22.166-15.025-33.838-8.274l-141.196 81.651c-15.146 8.759-8.512 31.981 8.968 31.388l180.878-6.134c20.286 0 32.968-21.994 22.82-39.6z" />
<glyph unicode="&#xe901;" glyph-name="logo" horiz-adv-x="3720" d="M1510.438 113.942c-42.734 0-74.264 8.042-94.588 24.128-20.326 16.604-30.488 41.25-30.488 73.94 0 15.568 1.824 31.394 5.472 47.478l38.304 176.682h-61.756c-5.212 0-9.382 1.816-12.508 5.448-2.606 4.152-3.388 8.822-2.346 14.010l9.382 44.366c1.042 5.188 3.648 9.598 7.816 13.23 4.692 3.632 9.902 5.448 15.636 5.448h60.974l28.144 129.204c1.042 5.708 3.648 10.118 7.816 13.232 4.17 3.632 8.86 5.448 14.072 5.448h63.32c5.732 0 10.162-1.816 13.29-5.448 2.084-2.594 3.126-5.708 3.126-9.34 0-1.038-0.26-2.336-0.782-3.892l-28.142-129.204h97.716c5.734 0 9.902-1.816 12.508-5.448 2.086-2.594 3.128-5.708 3.128-9.34 0-1.038-0.262-2.334-0.782-3.89l-9.382-44.366c-1.042-5.708-3.908-10.378-8.598-14.010-4.17-3.632-8.86-5.448-14.072-5.448h-97.716l-35.96-168.898c-3.648-16.086-5.472-28.28-5.472-36.582 0-10.378 2.866-18.16 8.6-23.35 6.254-5.188 16.416-7.782 30.486-7.782h56.286c5.212 0 9.38-1.816 12.508-5.448 2.084-2.596 3.126-5.708 3.126-9.34 0-1.038-0.26-2.336-0.782-3.892l-10.162-48.258c-1.042-5.706-3.908-10.376-8.6-14.010-4.168-3.112-8.858-4.668-14.070-4.668h-55.504zM1896.324 106.158c-52.636 0-93.546 12.712-122.732 38.138-29.184 25.426-43.776 59.932-43.776 103.518 0 7.264 1.042 18.68 3.126 34.246 4.692 27.502 9.642 50.332 14.854 68.494 14.070 55.002 40.128 98.070 78.172 129.202 38.046 31.134 87.554 46.7 148.53 46.7 52.636 0 93.548-12.712 122.732-38.138 29.71-25.426 44.55-60.19 44.55-104.296 0-6.746-1.040-17.902-3.12-33.468-7.82-37.36-12.76-60.192-14.86-68.494-14.584-55.52-40.642-98.848-78.164-129.98-37.524-30.616-87.294-45.922-149.312-45.922zM1904.142 183.212c28.142 0 52.116 8.562 71.92 25.686 19.804 17.642 33.874 43.326 42.212 77.054 3.648 14.528 8.078 34.766 13.29 60.71 2.086 15.566 3.128 26.464 3.128 32.69 0 46.7-22.672 70.050-68.012 70.050-28.142 0-52.114-8.822-71.918-26.464-19.284-17.642-33.094-43.068-41.432-76.276-5.734-18.162-10.164-38.398-13.29-60.71-2.084-10.896-3.126-22.572-3.126-35.024 0-45.144 22.408-67.716 67.228-67.716zM2233.9 113.942c-5.22 0-9.38 1.816-12.52 5.448-2.6 3.632-3.38 8.042-2.34 13.23l110.22 515.256c1.040 5.188 3.66 9.6 7.82 13.232 4.18 3.632 8.86 5.448 14.080 5.448h64.1c5.2 0 9.38-1.816 12.5-5.448 2.080-2.594 3.12-5.708 3.12-9.34 0-1.038-0.26-2.336-0.78-3.892l-56.28-263.076 153.22 120.642c1.56 1.038 4.44 3.112 8.6 6.226 3.64 2.594 7.3 4.41 10.94 5.448 3.66 1.038 7.82 1.556 12.52 1.556h79.72c4.18 0 7.56-1.296 10.18-3.89 2.6-2.076 3.9-4.93 3.9-8.562 0-7.264-3.64-13.492-10.94-18.68l-193.1-155.666 137.6-190.692c2.6-3.632 3.9-7.004 3.9-10.118 0-4.67-1.82-8.82-5.46-12.454-3.66-3.112-8.080-4.668-13.3-4.668h-71.14c-10.94 0-19.020 4.15-24.24 12.452l-121.94 166.564-34.4-160.338c-1.040-5.188-3.64-9.598-7.82-13.23-4.16-3.632-8.86-5.448-14.060-5.448h-64.1zM2850.16 106.158c-50.020 0-88.6 12.452-115.7 37.36-26.56 24.906-39.86 60.71-39.86 107.41 0 17.642 1.3 33.208 3.92 46.7 1.040 8.302 3.9 21.274 8.58 38.916 15.12 59.152 43.26 105.594 84.44 139.32 41.68 33.728 91.2 50.592 148.52 50.592 51.080 0 89.64-13.232 115.7-39.694 26.58-25.944 39.88-61.748 39.88-107.41 0-17.124-2.1-36.582-6.26-58.376l-3.92-16.344c-1.040-5.188-3.9-9.6-8.6-13.232-4.16-3.632-9.12-5.448-14.84-5.448h-259.54l-1.56-6.226c-1.56-8.302-2.34-16.864-2.34-25.686 0-22.312 5.46-40.472 16.4-54.482 11.48-14.010 28.16-21.016 50.040-21.016 30.22 0 57.32 11.934 81.3 35.804 6.26 5.708 10.94 9.34 14.080 10.896 3.12 1.556 7.54 2.336 13.28 2.336h68.020c4.68 0 8.32-1.558 10.94-4.67 2.080-2.076 3.12-4.67 3.12-7.784 0-1.038-0.26-2.336-0.78-3.892-3.64-12.452-14.86-26.982-33.62-43.586-18.24-16.604-42.46-31.134-72.7-43.586-29.7-11.936-62.54-17.902-98.5-17.902zM2989.32 351.332l0.78 2.334c2.080 9.86 3.12 19.718 3.12 29.578 0 22.312-6 39.954-17.98 52.926-11.46 12.972-28.14 19.458-50.020 19.458-27.1 0-50.3-9.34-69.58-28.020s-32.060-43.326-38.3-73.942l-0.78-2.334h172.76zM3173.96 113.942c-5.22 0-9.38 1.816-12.52 5.448-2.6 3.632-3.38 8.042-2.34 13.23l78.18 367.374c1.040 5.188 3.64 9.598 7.82 13.23 4.68 3.632 9.64 5.448 14.84 5.448h64.1c5.22 0 9.12-1.816 11.74-5.448 2.080-2.594 3.12-5.708 3.12-9.34 0-1.038-0.26-2.334-0.78-3.89l-7.040-31.912c38.040 38.916 83.38 58.374 136.020 58.374 43.26 0 76.1-10.896 98.5-32.69 22.94-21.274 34.4-51.37 34.4-90.286 0-15.048-2.080-32.43-6.26-52.148l-46.9-218.712c-1.040-5.706-3.9-10.376-8.6-14.010-4.16-3.112-8.86-4.668-14.060-4.668h-68.8c-5.22 0-9.38 1.816-12.5 5.448-2.62 3.632-3.4 8.042-2.36 13.23l45.34 214.042c3.66 18.16 5.48 31.652 5.48 40.474 0 19.198-5.22 33.208-15.64 42.028-9.9 9.34-26.32 14.010-49.24 14.010-29.72 0-54.98-8.56-75.84-25.684-20.32-17.124-33.86-40.732-40.64-70.828l-45.34-214.042c-1.040-5.706-3.66-10.376-7.82-14.010-4.16-3.112-8.86-4.668-14.080-4.668h-68.78zM327.39 519.408c-9.62 5.53-20.386-5.188-14.832-14.766l300.192-517.678c13.116-22.614 45.89-22.624 59.006 0l345.624 596.032c8.994 15.51 3.656 35.344-11.922 44.3l-413.036 237.429c-57.624 33.124-122.608 51.479-189.116 53.416l-269.808 7.859c-20.263 0-15.994-25.713 1.423-36.024l571.094-338.088c15.322-9.070 20.474-28.72 11.562-44.090l-76.21-131.422c-8.994-15.512-28.916-20.826-44.494-11.872l-269.484 154.904zM1180.506 853.496l-48.646-75.85c-9.378-14.621-28.65-19.306-43.74-10.632l-182.512 104.917c-19.58 11.255-11.002 41.093 11.592 40.332l233.808-7.882c26.22 0 42.614-28.261 29.498-50.884z" />
<glyph unicode="&#xe902;" glyph-name="ico" d="M524.914 494.618c-1.914-0.479-3.914-0.479-5.828 0l-387.144 96.894c-5.050 1.264-9.942-2.555-9.942-7.761v-47.133c0-5.505 3.746-10.304 9.087-11.641l387.999-97.108c1.914-0.479 3.914-0.479 5.828 0l388 97.108c5.34 1.337 9.086 6.136 9.086 11.641v47.133c0 5.205-4.892 9.024-9.942 7.761l-387.144-96.894zM524.914 369.478c-1.914-0.478-3.914-0.478-5.828 0l-392.115 98.138c-2.525 0.632-4.971-1.278-4.971-3.88v-49.136c0-7.34 4.995-13.739 12.115-15.521l384.971-96.349c1.914-0.48 3.914-0.48 5.828 0l384.97 96.349c7.122 1.782 12.116 8.181 12.116 15.521v49.136c0 2.603-2.446 4.512-4.972 3.88l-392.114-98.138z" />
<glyph unicode="&#xe921;" glyph-name="twitter" d="M1024 733.6c-37.6-16.8-78.2-28-120.6-33 43.4 26 76.6 67.2 92.4 116.2-40.6-24-85.6-41.6-133.4-51-38.4 40.8-93 66.2-153.4 66.2-116 0-210-94-210-210 0-16.4 1.8-32.4 5.4-47.8-174.6 8.8-329.4 92.4-433 219.6-18-31-28.4-67.2-28.4-105.6 0-72.8 37-137.2 93.4-174.8-34.4 1-66.8 10.6-95.2 26.2 0-0.8 0-1.8 0-2.6 0-101.8 72.4-186.8 168.6-206-17.6-4.8-36.2-7.4-55.4-7.4-13.6 0-26.6 1.4-39.6 3.8 26.8-83.4 104.4-144.2 196.2-146-72-56.4-162.4-90-261-90-17 0-33.6 1-50.2 3 93.2-59.8 203.6-94.4 322.2-94.4 386.4 0 597.8 320.2 597.8 597.8 0 9.2-0.2 18.2-0.6 27.2 41 29.4 76.6 66.4 104.8 108.6z" />
<glyph unicode="&#xe922;" glyph-name="medium" d="M756.736 151.808l-17.664-28.8 226.688-113.28c9.6-4.864 18.816-7.040 26.752-7.040 17.792 0 29.888 11.328 29.888 31.488v549.312l-265.6-431.68zM1018.88 706.688c-0.256 0.192 0 0.64-0.192 0.768l-308.8 154.368c-3.84 1.92-7.872 2.432-11.968 2.816-1.024 0-1.92 0.64-3.008 0.64-11.776 0-23.552-5.888-29.888-16.256l-15.36-24.96-32-52.096-120.96-197.12 184.96-300.864 37.76-60.8 301.44 488.96c1.28 1.92 0.64 3.84-1.28 5.12zM617.6 255.808l-196.416 319.168-16 26.624v-311.488l276.48-138.432-64 104.064zM47.168 852.48l-9.408 4.608c-5.44 2.688-10.624 3.968-15.36 3.968-13.184 0-22.4-10.24-22.4-27.328v-650.368c0-17.408 12.8-38.016 28.288-45.824l265.28-133.12c6.848-3.84 13.312-5.12 19.2-5.12 16.448 0 28.032 12.8 28.032 33.92v670.144c0 1.28-0.768 2.56-1.92 3.008l-291.648 146.112z" />
<glyph unicode="&#xe923;" glyph-name="telegram" d="M385.195 70.955c-30.464 0-25.301 11.563-35.797 40.491l-89.728 295.253 690.219 409.515zM385.195 70.955c23.552 0 33.92 10.752 47.147 23.595l125.483 121.899-156.629 94.464zM401.195 310.912l379.307-280.235c43.307-23.893 74.581-11.563 85.333 40.192l154.453 727.595c15.872 63.445-24.064 92.117-65.451 73.387l-906.837-349.739c-61.867-24.832-61.568-59.392-11.264-74.795l232.747-72.533 538.624 339.755c25.387 15.36 48.768 7.125 29.611-9.899z" />
<glyph unicode="&#xe924;" glyph-name="linkedin" d="M384 576h177.106v-90.782h2.532c24.64 44.194 84.958 90.782 174.842 90.782 186.946 0 221.52-116.376 221.52-267.734v-308.266h-184.61v273.278c0 65.184-1.334 149.026-96.028 149.026-96.148 0-110.82-70.986-110.82-144.292v-278.012h-184.542v576zM64 576h192v-576h-192v576zM256 736c0-53.020-42.98-96-96-96s-96 42.98-96 96c0 53.020 42.98 96 96 96s96-42.98 96-96z" />
<glyph unicode="&#xe925;" glyph-name="github" d="M512.008 947.358c-282.738 0-512.008-229.218-512.008-511.998 0-226.214 146.704-418.132 350.136-485.836 25.586-4.738 34.992 11.11 34.992 24.632 0 12.204-0.48 52.542-0.696 95.324-142.448-30.976-172.504 60.41-172.504 60.41-23.282 59.176-56.848 74.916-56.848 74.916-46.452 31.778 3.51 31.124 3.51 31.124 51.4-3.61 78.476-52.766 78.476-52.766 45.672-78.27 119.776-55.64 149.004-42.558 4.588 33.086 17.852 55.68 32.506 68.464-113.73 12.942-233.276 56.85-233.276 253.032 0 55.898 20.004 101.574 52.76 137.428-5.316 12.9-22.854 64.972 4.952 135.5 0 0 43.006 13.752 140.84-52.49 40.836 11.348 84.636 17.036 128.154 17.234 43.502-0.198 87.336-5.886 128.256-17.234 97.734 66.244 140.656 52.49 140.656 52.49 27.872-70.528 10.35-122.6 5.036-135.5 32.82-35.856 52.694-81.532 52.694-137.428 0-196.654-119.778-239.95-233.79-252.624 18.364-15.89 34.724-47.046 34.724-94.812 0-68.508-0.596-123.644-0.596-140.508 0-13.628 9.222-29.594 35.172-24.566 203.322 67.776 349.842 259.626 349.842 485.768 0 282.78-229.234 511.998-511.992 511.998z" />
</font></defs></svg>